<svg width="1225" height="353" viewBox="0 0 1225 353" fill="none" xmlns="http://www.w3.org/2000/svg">
<g style="mix-blend-mode:screen">
<path d="M175.212 339.189L35.1269 266.949M175.212 339.189L6.04209 190.816M175.212 339.189L15.8796 109.977M175.212 339.189L62.287 43.039M175.212 339.189L134.358 5.18597M175.212 339.189L314.855 266.949M175.212 339.189L343.939 190.816M175.212 339.189L334.102 109.977M175.212 339.189L287.694 43.039M175.212 339.189L215.624 5.18597M174.991 340.517L254.101 321.018L315.089 266.988L343.981 190.804L334.16 109.92L287.875 42.8648L215.73 5H134.251L62.1061 42.8648L15.8211 109.92L6 190.804L34.8926 266.988L95.88 321.018L174.991 340.517Z" stroke="url(#paint0_radial_355_71)" stroke-width="10"/>
<circle cx="175.567" cy="336.165" r="15.9385" fill="white"/>
<path d="M516.956 135.4L478.172 225H457.692L419.035 135.4H441.436L468.7 199.4L496.348 135.4H516.956ZM524.437 135.4H545.173V225H524.437V135.4ZM623.525 225L606.245 200.04H605.221H587.173V225H566.437V135.4H605.221C613.157 135.4 620.026 136.723 625.829 139.368C631.717 142.013 636.239 145.768 639.397 150.632C642.554 155.496 644.133 161.256 644.133 167.912C644.133 174.568 642.511 180.328 639.269 185.192C636.111 189.971 631.589 193.64 625.701 196.2L645.797 225H623.525ZM623.141 167.912C623.141 162.877 621.519 159.037 618.277 156.392C615.034 153.661 610.298 152.296 604.069 152.296H587.173V183.528H604.069C610.298 183.528 615.034 182.163 618.277 179.432C621.519 176.701 623.141 172.861 623.141 167.912ZM677.872 152.296H649.2V135.4H727.28V152.296H698.608V225H677.872V152.296ZM776.745 226.536C763.945 226.536 753.961 222.995 746.793 215.912C739.71 208.829 736.169 198.717 736.169 185.576V135.4H756.905V184.808C756.905 200.851 763.561 208.872 776.873 208.872C783.358 208.872 788.307 206.952 791.721 203.112C795.134 199.187 796.84 193.085 796.84 184.808V135.4H817.321V185.576C817.321 198.717 813.737 208.829 806.569 215.912C799.486 222.995 789.545 226.536 776.745 226.536ZM881.204 226.536C871.902 226.536 863.497 224.531 855.988 220.52C848.564 216.509 842.718 211.005 838.452 204.008C834.27 196.925 832.18 188.989 832.18 180.2C832.18 171.411 834.27 163.517 838.452 156.52C842.718 149.437 848.564 143.891 855.988 139.88C863.497 135.869 871.902 133.864 881.204 133.864C890.505 133.864 898.868 135.869 906.292 139.88C913.716 143.891 919.561 149.437 923.828 156.52C928.094 163.517 930.228 171.411 930.228 180.2C930.228 188.989 928.094 196.925 923.828 204.008C919.561 211.005 913.716 216.509 906.292 220.52C898.868 224.531 890.505 226.536 881.204 226.536ZM881.204 208.872C886.494 208.872 891.273 207.677 895.54 205.288C899.806 202.813 903.134 199.4 905.524 195.048C907.998 190.696 909.236 185.747 909.236 180.2C909.236 174.653 907.998 169.704 905.524 165.352C903.134 161 899.806 157.629 895.54 155.24C891.273 152.765 886.494 151.528 881.204 151.528C875.913 151.528 871.134 152.765 866.868 155.24C862.601 157.629 859.23 161 856.756 165.352C854.366 169.704 853.172 174.653 853.172 180.2C853.172 185.747 854.366 190.696 856.756 195.048C859.23 199.4 862.601 202.813 866.868 205.288C871.134 207.677 875.913 208.872 881.204 208.872ZM975.252 226.536C968.169 226.536 961.3 225.597 954.644 223.72C948.073 221.757 942.782 219.24 938.772 216.168L945.812 200.552C949.652 203.368 954.217 205.629 959.508 207.336C964.798 209.043 970.089 209.896 975.38 209.896C981.268 209.896 985.62 209.043 988.436 207.336C991.252 205.544 992.66 203.197 992.66 200.296C992.66 198.163 991.806 196.413 990.1 195.048C988.478 193.597 986.345 192.445 983.7 191.592C981.14 190.739 977.641 189.8 973.204 188.776C966.377 187.155 960.788 185.533 956.436 183.912C952.084 182.291 948.329 179.688 945.172 176.104C942.1 172.52 940.564 167.741 940.564 161.768C940.564 156.563 941.972 151.869 944.788 147.688C947.604 143.421 951.828 140.051 957.46 137.576C963.177 135.101 970.132 133.864 978.324 133.864C984.041 133.864 989.63 134.547 995.092 135.912C1000.55 137.277 1005.33 139.24 1009.43 141.8L1003.03 157.544C994.75 152.851 986.473 150.504 978.196 150.504C972.393 150.504 968.084 151.443 965.268 153.32C962.537 155.197 961.172 157.672 961.172 160.744C961.172 163.816 962.75 166.12 965.908 167.656C969.15 169.107 974.057 170.557 980.628 172.008C987.454 173.629 993.044 175.251 997.396 176.872C1001.75 178.493 1005.46 181.053 1008.53 184.552C1011.69 188.051 1013.27 192.787 1013.27 198.76C1013.27 203.88 1011.82 208.573 1008.92 212.84C1006.1 217.021 1001.83 220.349 996.116 222.824C990.398 225.299 983.444 226.536 975.252 226.536ZM1027.44 135.4H1048.17V225H1027.44V135.4ZM1088 152.296H1059.32V135.4H1137.4V152.296H1108.73V225H1088V152.296ZM1189.94 193.256V225H1169.21V193L1134.52 135.4H1156.54L1180.47 175.208L1204.41 135.4H1224.76L1189.94 193.256Z" fill="white"/>
</g>
<defs>
<radialGradient id="paint0_radial_355_71" cx="0" cy="0" r="1" gradientUnits="userSpaceOnUse" gradientTransform="translate(176 339) rotate(-90.4459) scale(128.504)">
<stop stop-color="white" stop-opacity="0.11"/>
<stop offset="0.566708" stop-color="white"/>
</radialGradient>
</defs>
</svg>
